ARM GAS  C:\Users\User\AppData\Local\Temp\ccAaYIaT.s 			page 1


   1              		.syntax unified
   2              		.cpu cortex-m3
   3              		.fpu softvfp
   4              		.eabi_attribute 20, 1
   5              		.eabi_attribute 21, 1
   6              		.eabi_attribute 23, 3
   7              		.eabi_attribute 24, 1
   8              		.eabi_attribute 25, 1
   9              		.eabi_attribute 26, 1
  10              		.eabi_attribute 30, 1
  11              		.eabi_attribute 34, 1
  12              		.eabi_attribute 18, 4
  13              		.thumb
  14              		.syntax unified
  15              		.file	"ADC_PM.c"
  16              		.text
  17              	.Ltext0:
  18              		.cfi_sections	.debug_frame
  19              		.section	.text.ADC_SaveConfig,"ax",%progbits
  20              		.align	2
  21              		.global	ADC_SaveConfig
  22              		.thumb
  23              		.thumb_func
  24              		.type	ADC_SaveConfig, %function
  25              	ADC_SaveConfig:
  26              	.LFB0:
  27              		.file 1 "Generated_Source\\PSoC5\\ADC_PM.c"
   1:Generated_Source\PSoC5/ADC_PM.c **** /*******************************************************************************
   2:Generated_Source\PSoC5/ADC_PM.c **** * File Name: ADC_PM.c
   3:Generated_Source\PSoC5/ADC_PM.c **** * Version 3.30
   4:Generated_Source\PSoC5/ADC_PM.c **** *
   5:Generated_Source\PSoC5/ADC_PM.c **** * Description:
   6:Generated_Source\PSoC5/ADC_PM.c **** *  This file provides the power manager source code to the API for the
   7:Generated_Source\PSoC5/ADC_PM.c **** *  Delta-Sigma ADC Component.
   8:Generated_Source\PSoC5/ADC_PM.c **** *
   9:Generated_Source\PSoC5/ADC_PM.c **** * Note:
  10:Generated_Source\PSoC5/ADC_PM.c **** *
  11:Generated_Source\PSoC5/ADC_PM.c **** ********************************************************************************
  12:Generated_Source\PSoC5/ADC_PM.c **** * Copyright 2008-2017, Cypress Semiconductor Corporation.  All rights reserved.
  13:Generated_Source\PSoC5/ADC_PM.c **** * You may use this file only in accordance with the license, terms, conditions,
  14:Generated_Source\PSoC5/ADC_PM.c **** * disclaimers, and limitations in the end user license agreement accompanying
  15:Generated_Source\PSoC5/ADC_PM.c **** * the software package with which this file was provided.
  16:Generated_Source\PSoC5/ADC_PM.c **** *******************************************************************************/
  17:Generated_Source\PSoC5/ADC_PM.c **** 
  18:Generated_Source\PSoC5/ADC_PM.c **** #include "ADC.h"
  19:Generated_Source\PSoC5/ADC_PM.c **** 
  20:Generated_Source\PSoC5/ADC_PM.c **** static ADC_BACKUP_STRUCT ADC_backup =
  21:Generated_Source\PSoC5/ADC_PM.c **** {
  22:Generated_Source\PSoC5/ADC_PM.c ****     ADC_DISABLED,
  23:Generated_Source\PSoC5/ADC_PM.c ****     ADC_CFG1_DEC_CR
  24:Generated_Source\PSoC5/ADC_PM.c **** };
  25:Generated_Source\PSoC5/ADC_PM.c **** 
  26:Generated_Source\PSoC5/ADC_PM.c **** 
  27:Generated_Source\PSoC5/ADC_PM.c **** /*******************************************************************************
  28:Generated_Source\PSoC5/ADC_PM.c **** * Function Name: ADC_SaveConfig
  29:Generated_Source\PSoC5/ADC_PM.c **** ********************************************************************************
  30:Generated_Source\PSoC5/ADC_PM.c **** *
ARM GAS  C:\Users\User\AppData\Local\Temp\ccAaYIaT.s 			page 2


  31:Generated_Source\PSoC5/ADC_PM.c **** * Summary:
  32:Generated_Source\PSoC5/ADC_PM.c **** *  Save the register configuration which are not retention.
  33:Generated_Source\PSoC5/ADC_PM.c **** *
  34:Generated_Source\PSoC5/ADC_PM.c **** * Parameters:
  35:Generated_Source\PSoC5/ADC_PM.c **** *  None
  36:Generated_Source\PSoC5/ADC_PM.c **** *
  37:Generated_Source\PSoC5/ADC_PM.c **** * Return:
  38:Generated_Source\PSoC5/ADC_PM.c **** *  None
  39:Generated_Source\PSoC5/ADC_PM.c **** *
  40:Generated_Source\PSoC5/ADC_PM.c **** * Global variables:
  41:Generated_Source\PSoC5/ADC_PM.c **** *  ADC_backup:  This global structure variable is used to store
  42:Generated_Source\PSoC5/ADC_PM.c **** *  configuration registers which are non retention whenever user wants to go
  43:Generated_Source\PSoC5/ADC_PM.c **** *  sleep mode by calling Sleep() API.
  44:Generated_Source\PSoC5/ADC_PM.c **** *
  45:Generated_Source\PSoC5/ADC_PM.c **** *******************************************************************************/
  46:Generated_Source\PSoC5/ADC_PM.c **** void ADC_SaveConfig(void) 
  47:Generated_Source\PSoC5/ADC_PM.c **** {
  28              		.loc 1 47 0
  29              		.cfi_startproc
  30              		@ args = 0, pretend = 0, frame = 0
  31              		@ frame_needed = 0, uses_anonymous_args = 0
  32              		@ link register save eliminated.
  48:Generated_Source\PSoC5/ADC_PM.c ****     ADC_backup.deccr = ADC_DEC_CR_REG;
  33              		.loc 1 48 0
  34 0000 024B     		ldr	r3, .L2
  35 0002 1A78     		ldrb	r2, [r3]	@ zero_extendqisi2
  36 0004 024B     		ldr	r3, .L2+4
  37 0006 5A70     		strb	r2, [r3, #1]
  38 0008 7047     		bx	lr
  39              	.L3:
  40 000a 00BF     		.align	2
  41              	.L2:
  42 000c 004E0040 		.word	1073761792
  43 0010 00000000 		.word	.LANCHOR0
  44              		.cfi_endproc
  45              	.LFE0:
  46              		.size	ADC_SaveConfig, .-ADC_SaveConfig
  47              		.section	.text.ADC_RestoreConfig,"ax",%progbits
  48              		.align	2
  49              		.global	ADC_RestoreConfig
  50              		.thumb
  51              		.thumb_func
  52              		.type	ADC_RestoreConfig, %function
  53              	ADC_RestoreConfig:
  54              	.LFB1:
  49:Generated_Source\PSoC5/ADC_PM.c **** }
  50:Generated_Source\PSoC5/ADC_PM.c **** 
  51:Generated_Source\PSoC5/ADC_PM.c **** 
  52:Generated_Source\PSoC5/ADC_PM.c **** /*******************************************************************************
  53:Generated_Source\PSoC5/ADC_PM.c **** * Function Name: ADC_RestoreConfig
  54:Generated_Source\PSoC5/ADC_PM.c **** ********************************************************************************
  55:Generated_Source\PSoC5/ADC_PM.c **** *
  56:Generated_Source\PSoC5/ADC_PM.c **** * Summary:
  57:Generated_Source\PSoC5/ADC_PM.c **** *  Restore the register configurations which are not retention.
  58:Generated_Source\PSoC5/ADC_PM.c **** *
  59:Generated_Source\PSoC5/ADC_PM.c **** * Parameters:
  60:Generated_Source\PSoC5/ADC_PM.c **** *  None
ARM GAS  C:\Users\User\AppData\Local\Temp\ccAaYIaT.s 			page 3


  61:Generated_Source\PSoC5/ADC_PM.c **** *
  62:Generated_Source\PSoC5/ADC_PM.c **** * Return:
  63:Generated_Source\PSoC5/ADC_PM.c **** *  None
  64:Generated_Source\PSoC5/ADC_PM.c **** *
  65:Generated_Source\PSoC5/ADC_PM.c **** * Global variables:
  66:Generated_Source\PSoC5/ADC_PM.c **** *  ADC_backup:  This global structure variable is used to restore
  67:Generated_Source\PSoC5/ADC_PM.c **** *  configuration registers which are non retention whenever user wants to switch
  68:Generated_Source\PSoC5/ADC_PM.c **** *  to active power mode by calling Wakeup() API.
  69:Generated_Source\PSoC5/ADC_PM.c **** *
  70:Generated_Source\PSoC5/ADC_PM.c **** *******************************************************************************/
  71:Generated_Source\PSoC5/ADC_PM.c **** void ADC_RestoreConfig(void) 
  72:Generated_Source\PSoC5/ADC_PM.c **** {
  55              		.loc 1 72 0
  56              		.cfi_startproc
  57              		@ args = 0, pretend = 0, frame = 0
  58              		@ frame_needed = 0, uses_anonymous_args = 0
  59              		@ link register save eliminated.
  73:Generated_Source\PSoC5/ADC_PM.c ****     ADC_DEC_CR_REG = ADC_backup.deccr;
  60              		.loc 1 73 0
  61 0000 024B     		ldr	r3, .L5
  62 0002 5A78     		ldrb	r2, [r3, #1]	@ zero_extendqisi2
  63 0004 024B     		ldr	r3, .L5+4
  64 0006 1A70     		strb	r2, [r3]
  65 0008 7047     		bx	lr
  66              	.L6:
  67 000a 00BF     		.align	2
  68              	.L5:
  69 000c 00000000 		.word	.LANCHOR0
  70 0010 004E0040 		.word	1073761792
  71              		.cfi_endproc
  72              	.LFE1:
  73              		.size	ADC_RestoreConfig, .-ADC_RestoreConfig
  74              		.section	.text.ADC_Sleep,"ax",%progbits
  75              		.align	2
  76              		.global	ADC_Sleep
  77              		.thumb
  78              		.thumb_func
  79              		.type	ADC_Sleep, %function
  80              	ADC_Sleep:
  81              	.LFB2:
  74:Generated_Source\PSoC5/ADC_PM.c **** }
  75:Generated_Source\PSoC5/ADC_PM.c **** 
  76:Generated_Source\PSoC5/ADC_PM.c **** 
  77:Generated_Source\PSoC5/ADC_PM.c **** /*******************************************************************************
  78:Generated_Source\PSoC5/ADC_PM.c **** * Function Name: ADC_Sleep
  79:Generated_Source\PSoC5/ADC_PM.c **** ********************************************************************************
  80:Generated_Source\PSoC5/ADC_PM.c **** *
  81:Generated_Source\PSoC5/ADC_PM.c **** * Summary:
  82:Generated_Source\PSoC5/ADC_PM.c **** *  Stops the operation of the block and saves the user configuration.
  83:Generated_Source\PSoC5/ADC_PM.c **** *
  84:Generated_Source\PSoC5/ADC_PM.c **** * Parameters:
  85:Generated_Source\PSoC5/ADC_PM.c **** *  None
  86:Generated_Source\PSoC5/ADC_PM.c **** *
  87:Generated_Source\PSoC5/ADC_PM.c **** * Return:
  88:Generated_Source\PSoC5/ADC_PM.c **** *  None
  89:Generated_Source\PSoC5/ADC_PM.c **** *
  90:Generated_Source\PSoC5/ADC_PM.c **** * Global variables:
ARM GAS  C:\Users\User\AppData\Local\Temp\ccAaYIaT.s 			page 4


  91:Generated_Source\PSoC5/ADC_PM.c **** *  ADC_backup:  The structure field 'enableState' is modified
  92:Generated_Source\PSoC5/ADC_PM.c **** *  depending on the enable state of the block before entering to sleep mode.
  93:Generated_Source\PSoC5/ADC_PM.c **** *
  94:Generated_Source\PSoC5/ADC_PM.c **** *******************************************************************************/
  95:Generated_Source\PSoC5/ADC_PM.c **** void ADC_Sleep(void) 
  96:Generated_Source\PSoC5/ADC_PM.c **** {
  82              		.loc 1 96 0
  83              		.cfi_startproc
  84              		@ args = 0, pretend = 0, frame = 0
  85              		@ frame_needed = 0, uses_anonymous_args = 0
  86 0000 08B5     		push	{r3, lr}
  87              		.cfi_def_cfa_offset 8
  88              		.cfi_offset 3, -8
  89              		.cfi_offset 14, -4
  97:Generated_Source\PSoC5/ADC_PM.c ****     /* Save ADC enable state */
  98:Generated_Source\PSoC5/ADC_PM.c ****     if((ADC_ACT_PWR_DEC_EN == (ADC_PWRMGR_DEC_REG & ADC_ACT_PWR_DEC_EN)) &&
  90              		.loc 1 98 0
  91 0002 0F4B     		ldr	r3, .L12
  92 0004 1B78     		ldrb	r3, [r3]	@ zero_extendqisi2
  93 0006 13F0010F 		tst	r3, #1
  94 000a 12D0     		beq	.L8
  99:Generated_Source\PSoC5/ADC_PM.c ****        (ADC_ACT_PWR_DSM_EN == (ADC_PWRMGR_DSM_REG & ADC_ACT_PWR_DSM_EN)))
  95              		.loc 1 99 0 discriminator 1
  96 000c 0C4B     		ldr	r3, .L12
  97 000e 1B78     		ldrb	r3, [r3]	@ zero_extendqisi2
  98:Generated_Source\PSoC5/ADC_PM.c ****        (ADC_ACT_PWR_DSM_EN == (ADC_PWRMGR_DSM_REG & ADC_ACT_PWR_DSM_EN)))
  98              		.loc 1 98 0 discriminator 1
  99 0010 13F0100F 		tst	r3, #16
 100 0014 0DD0     		beq	.L8
 100:Generated_Source\PSoC5/ADC_PM.c ****     {
 101:Generated_Source\PSoC5/ADC_PM.c ****         /* Component is enabled */
 102:Generated_Source\PSoC5/ADC_PM.c ****         ADC_backup.enableState = ADC_ENABLED;
 101              		.loc 1 102 0
 102 0016 0122     		movs	r2, #1
 103 0018 0A4B     		ldr	r3, .L12+4
 104 001a 1A70     		strb	r2, [r3]
 103:Generated_Source\PSoC5/ADC_PM.c ****         if((ADC_DEC_CR_REG & ADC_DEC_START_CONV) != 0u)
 105              		.loc 1 103 0
 106 001c 0A4B     		ldr	r3, .L12+8
 107 001e 1B78     		ldrb	r3, [r3]	@ zero_extendqisi2
 108 0020 13F0010F 		tst	r3, #1
 109 0024 02D0     		beq	.L9
 104:Generated_Source\PSoC5/ADC_PM.c ****         {   
 105:Generated_Source\PSoC5/ADC_PM.c ****             /* Conversion is started */
 106:Generated_Source\PSoC5/ADC_PM.c ****             ADC_backup.enableState |= ADC_STARTED;
 110              		.loc 1 106 0
 111 0026 0322     		movs	r2, #3
 112 0028 064B     		ldr	r3, .L12+4
 113 002a 1A70     		strb	r2, [r3]
 114              	.L9:
 107:Generated_Source\PSoC5/ADC_PM.c ****         }
 108:Generated_Source\PSoC5/ADC_PM.c **** 		
 109:Generated_Source\PSoC5/ADC_PM.c ****         /* Stop the configuration */
 110:Generated_Source\PSoC5/ADC_PM.c ****         ADC_Stop();
 115              		.loc 1 110 0
 116 002c FFF7FEFF 		bl	ADC_Stop
 117              	.LVL0:
ARM GAS  C:\Users\User\AppData\Local\Temp\ccAaYIaT.s 			page 5


 118 0030 02E0     		b	.L10
 119              	.L8:
 111:Generated_Source\PSoC5/ADC_PM.c ****     }
 112:Generated_Source\PSoC5/ADC_PM.c ****     else
 113:Generated_Source\PSoC5/ADC_PM.c ****     {
 114:Generated_Source\PSoC5/ADC_PM.c ****         /* Component is disabled */
 115:Generated_Source\PSoC5/ADC_PM.c ****         ADC_backup.enableState = ADC_DISABLED;
 120              		.loc 1 115 0
 121 0032 0022     		movs	r2, #0
 122 0034 034B     		ldr	r3, .L12+4
 123 0036 1A70     		strb	r2, [r3]
 124              	.L10:
 116:Generated_Source\PSoC5/ADC_PM.c ****     }
 117:Generated_Source\PSoC5/ADC_PM.c **** 
 118:Generated_Source\PSoC5/ADC_PM.c ****     /* Save the user configuration */
 119:Generated_Source\PSoC5/ADC_PM.c ****     ADC_SaveConfig();
 125              		.loc 1 119 0
 126 0038 FFF7FEFF 		bl	ADC_SaveConfig
 127              	.LVL1:
 128 003c 08BD     		pop	{r3, pc}
 129              	.L13:
 130 003e 00BF     		.align	2
 131              	.L12:
 132 0040 AA430040 		.word	1073759146
 133 0044 00000000 		.word	.LANCHOR0
 134 0048 004E0040 		.word	1073761792
 135              		.cfi_endproc
 136              	.LFE2:
 137              		.size	ADC_Sleep, .-ADC_Sleep
 138              		.section	.text.ADC_Wakeup,"ax",%progbits
 139              		.align	2
 140              		.global	ADC_Wakeup
 141              		.thumb
 142              		.thumb_func
 143              		.type	ADC_Wakeup, %function
 144              	ADC_Wakeup:
 145              	.LFB3:
 120:Generated_Source\PSoC5/ADC_PM.c **** }
 121:Generated_Source\PSoC5/ADC_PM.c **** 
 122:Generated_Source\PSoC5/ADC_PM.c **** 
 123:Generated_Source\PSoC5/ADC_PM.c **** /*******************************************************************************
 124:Generated_Source\PSoC5/ADC_PM.c **** * Function Name: ADC_Wakeup
 125:Generated_Source\PSoC5/ADC_PM.c **** ********************************************************************************
 126:Generated_Source\PSoC5/ADC_PM.c **** *
 127:Generated_Source\PSoC5/ADC_PM.c **** * Summary:
 128:Generated_Source\PSoC5/ADC_PM.c **** *  Restores the user configuration and enables the power to the block.
 129:Generated_Source\PSoC5/ADC_PM.c **** *
 130:Generated_Source\PSoC5/ADC_PM.c **** * Parameters:
 131:Generated_Source\PSoC5/ADC_PM.c **** *  None
 132:Generated_Source\PSoC5/ADC_PM.c **** *
 133:Generated_Source\PSoC5/ADC_PM.c **** * Return:
 134:Generated_Source\PSoC5/ADC_PM.c **** *  None
 135:Generated_Source\PSoC5/ADC_PM.c **** *
 136:Generated_Source\PSoC5/ADC_PM.c **** * Global variables:
 137:Generated_Source\PSoC5/ADC_PM.c **** *  ADC_backup:  The structure field 'enableState' is used to
 138:Generated_Source\PSoC5/ADC_PM.c **** *  restore the enable state of block after wakeup from sleep mode.
 139:Generated_Source\PSoC5/ADC_PM.c **** *
ARM GAS  C:\Users\User\AppData\Local\Temp\ccAaYIaT.s 			page 6


 140:Generated_Source\PSoC5/ADC_PM.c **** *******************************************************************************/
 141:Generated_Source\PSoC5/ADC_PM.c **** void ADC_Wakeup(void) 
 142:Generated_Source\PSoC5/ADC_PM.c **** {
 146              		.loc 1 142 0
 147              		.cfi_startproc
 148              		@ args = 0, pretend = 0, frame = 0
 149              		@ frame_needed = 0, uses_anonymous_args = 0
 150 0000 08B5     		push	{r3, lr}
 151              		.cfi_def_cfa_offset 8
 152              		.cfi_offset 3, -8
 153              		.cfi_offset 14, -4
 143:Generated_Source\PSoC5/ADC_PM.c ****     /* Restore the configuration */
 144:Generated_Source\PSoC5/ADC_PM.c ****     ADC_RestoreConfig();
 154              		.loc 1 144 0
 155 0002 FFF7FEFF 		bl	ADC_RestoreConfig
 156              	.LVL2:
 145:Generated_Source\PSoC5/ADC_PM.c **** 
 146:Generated_Source\PSoC5/ADC_PM.c ****     /* Enables the component operation */
 147:Generated_Source\PSoC5/ADC_PM.c ****     if(ADC_backup.enableState != ADC_DISABLED)
 157              		.loc 1 147 0
 158 0006 064B     		ldr	r3, .L17
 159 0008 1B78     		ldrb	r3, [r3]	@ zero_extendqisi2
 160 000a 43B1     		cbz	r3, .L14
 148:Generated_Source\PSoC5/ADC_PM.c ****     {
 149:Generated_Source\PSoC5/ADC_PM.c ****         ADC_Enable();
 161              		.loc 1 149 0
 162 000c FFF7FEFF 		bl	ADC_Enable
 163              	.LVL3:
 150:Generated_Source\PSoC5/ADC_PM.c ****         if((ADC_backup.enableState & ADC_STARTED) != 0u)
 164              		.loc 1 150 0
 165 0010 034B     		ldr	r3, .L17
 166 0012 1B78     		ldrb	r3, [r3]	@ zero_extendqisi2
 167 0014 13F0020F 		tst	r3, #2
 168 0018 01D0     		beq	.L14
 151:Generated_Source\PSoC5/ADC_PM.c ****         {
 152:Generated_Source\PSoC5/ADC_PM.c ****             ADC_StartConvert();
 169              		.loc 1 152 0
 170 001a FFF7FEFF 		bl	ADC_StartConvert
 171              	.LVL4:
 172              	.L14:
 173 001e 08BD     		pop	{r3, pc}
 174              	.L18:
 175              		.align	2
 176              	.L17:
 177 0020 00000000 		.word	.LANCHOR0
 178              		.cfi_endproc
 179              	.LFE3:
 180              		.size	ADC_Wakeup, .-ADC_Wakeup
 181              		.data
 182              		.align	2
 183              		.set	.LANCHOR0,. + 0
 184              		.type	ADC_backup, %object
 185              		.size	ADC_backup, 2
 186              	ADC_backup:
 187 0000 00       		.byte	0
 188 0001 38       		.byte	56
 189              		.text
ARM GAS  C:\Users\User\AppData\Local\Temp\ccAaYIaT.s 			page 7


 190              	.Letext0:
 191              		.file 2 "Generated_Source\\PSoC5\\cytypes.h"
 192              		.file 3 "Generated_Source\\PSoC5\\ADC.h"
 193              		.section	.debug_info,"",%progbits
 194              	.Ldebug_info0:
 195 0000 81010000 		.4byte	0x181
 196 0004 0400     		.2byte	0x4
 197 0006 00000000 		.4byte	.Ldebug_abbrev0
 198 000a 04       		.byte	0x4
 199 000b 01       		.uleb128 0x1
 200 000c 8E000000 		.4byte	.LASF26
 201 0010 0C       		.byte	0xc
 202 0011 FE010000 		.4byte	.LASF27
 203 0015 41000000 		.4byte	.LASF28
 204 0019 00000000 		.4byte	.Ldebug_ranges0+0
 205 001d 00000000 		.4byte	0
 206 0021 00000000 		.4byte	.Ldebug_line0
 207 0025 02       		.uleb128 0x2
 208 0026 01       		.byte	0x1
 209 0027 06       		.byte	0x6
 210 0028 E7010000 		.4byte	.LASF0
 211 002c 02       		.uleb128 0x2
 212 002d 01       		.byte	0x1
 213 002e 08       		.byte	0x8
 214 002f 80000000 		.4byte	.LASF1
 215 0033 02       		.uleb128 0x2
 216 0034 02       		.byte	0x2
 217 0035 05       		.byte	0x5
 218 0036 BC010000 		.4byte	.LASF2
 219 003a 02       		.uleb128 0x2
 220 003b 02       		.byte	0x2
 221 003c 07       		.byte	0x7
 222 003d 28000000 		.4byte	.LASF3
 223 0041 02       		.uleb128 0x2
 224 0042 04       		.byte	0x4
 225 0043 05       		.byte	0x5
 226 0044 C6010000 		.4byte	.LASF4
 227 0048 02       		.uleb128 0x2
 228 0049 04       		.byte	0x4
 229 004a 07       		.byte	0x7
 230 004b 21010000 		.4byte	.LASF5
 231 004f 02       		.uleb128 0x2
 232 0050 08       		.byte	0x8
 233 0051 05       		.byte	0x5
 234 0052 00000000 		.4byte	.LASF6
 235 0056 02       		.uleb128 0x2
 236 0057 08       		.byte	0x8
 237 0058 07       		.byte	0x7
 238 0059 62010000 		.4byte	.LASF7
 239 005d 03       		.uleb128 0x3
 240 005e 04       		.byte	0x4
 241 005f 05       		.byte	0x5
 242 0060 696E7400 		.ascii	"int\000"
 243 0064 02       		.uleb128 0x2
 244 0065 04       		.byte	0x4
 245 0066 07       		.byte	0x7
 246 0067 4A010000 		.4byte	.LASF8
ARM GAS  C:\Users\User\AppData\Local\Temp\ccAaYIaT.s 			page 8


 247 006b 04       		.uleb128 0x4
 248 006c 33010000 		.4byte	.LASF12
 249 0070 02       		.byte	0x2
 250 0071 E401     		.2byte	0x1e4
 251 0073 2C000000 		.4byte	0x2c
 252 0077 02       		.uleb128 0x2
 253 0078 04       		.byte	0x4
 254 0079 04       		.byte	0x4
 255 007a 7A000000 		.4byte	.LASF9
 256 007e 02       		.uleb128 0x2
 257 007f 08       		.byte	0x8
 258 0080 04       		.byte	0x4
 259 0081 43010000 		.4byte	.LASF10
 260 0085 02       		.uleb128 0x2
 261 0086 01       		.byte	0x1
 262 0087 08       		.byte	0x8
 263 0088 A5010000 		.4byte	.LASF11
 264 008c 04       		.uleb128 0x4
 265 008d 1C010000 		.4byte	.LASF13
 266 0091 02       		.byte	0x2
 267 0092 8E02     		.2byte	0x28e
 268 0094 98000000 		.4byte	0x98
 269 0098 05       		.uleb128 0x5
 270 0099 6B000000 		.4byte	0x6b
 271 009d 02       		.uleb128 0x2
 272 009e 08       		.byte	0x8
 273 009f 04       		.byte	0x4
 274 00a0 DB010000 		.4byte	.LASF14
 275 00a4 02       		.uleb128 0x2
 276 00a5 04       		.byte	0x4
 277 00a6 07       		.byte	0x7
 278 00a7 79010000 		.4byte	.LASF15
 279 00ab 06       		.uleb128 0x6
 280 00ac 02       		.byte	0x2
 281 00ad 03       		.byte	0x3
 282 00ae 28       		.byte	0x28
 283 00af CC000000 		.4byte	0xcc
 284 00b3 07       		.uleb128 0x7
 285 00b4 CF010000 		.4byte	.LASF16
 286 00b8 03       		.byte	0x3
 287 00b9 2A       		.byte	0x2a
 288 00ba 6B000000 		.4byte	0x6b
 289 00be 00       		.byte	0
 290 00bf 07       		.uleb128 0x7
 291 00c0 3B000000 		.4byte	.LASF17
 292 00c4 03       		.byte	0x3
 293 00c5 2B       		.byte	0x2b
 294 00c6 6B000000 		.4byte	0x6b
 295 00ca 01       		.byte	0x1
 296 00cb 00       		.byte	0
 297 00cc 08       		.uleb128 0x8
 298 00cd 93010000 		.4byte	.LASF18
 299 00d1 03       		.byte	0x3
 300 00d2 2C       		.byte	0x2c
 301 00d3 AB000000 		.4byte	0xab
 302 00d7 09       		.uleb128 0x9
 303 00d8 19000000 		.4byte	.LASF19
ARM GAS  C:\Users\User\AppData\Local\Temp\ccAaYIaT.s 			page 9


 304 00dc 01       		.byte	0x1
 305 00dd 2E       		.byte	0x2e
 306 00de 00000000 		.4byte	.LFB0
 307 00e2 14000000 		.4byte	.LFE0-.LFB0
 308 00e6 01       		.uleb128 0x1
 309 00e7 9C       		.byte	0x9c
 310 00e8 09       		.uleb128 0x9
 311 00e9 AA010000 		.4byte	.LASF20
 312 00ed 01       		.byte	0x1
 313 00ee 47       		.byte	0x47
 314 00ef 00000000 		.4byte	.LFB1
 315 00f3 14000000 		.4byte	.LFE1-.LFB1
 316 00f7 01       		.uleb128 0x1
 317 00f8 9C       		.byte	0x9c
 318 00f9 0A       		.uleb128 0xa
 319 00fa 39010000 		.4byte	.LASF21
 320 00fe 01       		.byte	0x1
 321 00ff 5F       		.byte	0x5f
 322 0100 00000000 		.4byte	.LFB2
 323 0104 4C000000 		.4byte	.LFE2-.LFB2
 324 0108 01       		.uleb128 0x1
 325 0109 9C       		.byte	0x9c
 326 010a 21010000 		.4byte	0x121
 327 010e 0B       		.uleb128 0xb
 328 010f 30000000 		.4byte	.LVL0
 329 0113 63010000 		.4byte	0x163
 330 0117 0B       		.uleb128 0xb
 331 0118 3C000000 		.4byte	.LVL1
 332 011c D7000000 		.4byte	0xd7
 333 0120 00       		.byte	0
 334 0121 0A       		.uleb128 0xa
 335 0122 0E000000 		.4byte	.LASF22
 336 0126 01       		.byte	0x1
 337 0127 8D       		.byte	0x8d
 338 0128 00000000 		.4byte	.LFB3
 339 012c 24000000 		.4byte	.LFE3-.LFB3
 340 0130 01       		.uleb128 0x1
 341 0131 9C       		.byte	0x9c
 342 0132 52010000 		.4byte	0x152
 343 0136 0B       		.uleb128 0xb
 344 0137 06000000 		.4byte	.LVL2
 345 013b E8000000 		.4byte	0xe8
 346 013f 0B       		.uleb128 0xb
 347 0140 10000000 		.4byte	.LVL3
 348 0144 6E010000 		.4byte	0x16e
 349 0148 0B       		.uleb128 0xb
 350 0149 1E000000 		.4byte	.LVL4
 351 014d 79010000 		.4byte	0x179
 352 0151 00       		.byte	0
 353 0152 0C       		.uleb128 0xc
 354 0153 F3010000 		.4byte	.LASF29
 355 0157 01       		.byte	0x1
 356 0158 14       		.byte	0x14
 357 0159 CC000000 		.4byte	0xcc
 358 015d 05       		.uleb128 0x5
 359 015e 03       		.byte	0x3
 360 015f 00000000 		.4byte	ADC_backup
ARM GAS  C:\Users\User\AppData\Local\Temp\ccAaYIaT.s 			page 10


 361 0163 0D       		.uleb128 0xd
 362 0164 1E020000 		.4byte	.LASF23
 363 0168 1E020000 		.4byte	.LASF23
 364 016c 03       		.byte	0x3
 365 016d 3B       		.byte	0x3b
 366 016e 0D       		.uleb128 0xd
 367 016f 57010000 		.4byte	.LASF24
 368 0173 57010000 		.4byte	.LASF24
 369 0177 03       		.byte	0x3
 370 0178 4D       		.byte	0x4d
 371 0179 0D       		.uleb128 0xd
 372 017a 82010000 		.4byte	.LASF25
 373 017e 82010000 		.4byte	.LASF25
 374 0182 03       		.byte	0x3
 375 0183 3D       		.byte	0x3d
 376 0184 00       		.byte	0
 377              		.section	.debug_abbrev,"",%progbits
 378              	.Ldebug_abbrev0:
 379 0000 01       		.uleb128 0x1
 380 0001 11       		.uleb128 0x11
 381 0002 01       		.byte	0x1
 382 0003 25       		.uleb128 0x25
 383 0004 0E       		.uleb128 0xe
 384 0005 13       		.uleb128 0x13
 385 0006 0B       		.uleb128 0xb
 386 0007 03       		.uleb128 0x3
 387 0008 0E       		.uleb128 0xe
 388 0009 1B       		.uleb128 0x1b
 389 000a 0E       		.uleb128 0xe
 390 000b 55       		.uleb128 0x55
 391 000c 17       		.uleb128 0x17
 392 000d 11       		.uleb128 0x11
 393 000e 01       		.uleb128 0x1
 394 000f 10       		.uleb128 0x10
 395 0010 17       		.uleb128 0x17
 396 0011 00       		.byte	0
 397 0012 00       		.byte	0
 398 0013 02       		.uleb128 0x2
 399 0014 24       		.uleb128 0x24
 400 0015 00       		.byte	0
 401 0016 0B       		.uleb128 0xb
 402 0017 0B       		.uleb128 0xb
 403 0018 3E       		.uleb128 0x3e
 404 0019 0B       		.uleb128 0xb
 405 001a 03       		.uleb128 0x3
 406 001b 0E       		.uleb128 0xe
 407 001c 00       		.byte	0
 408 001d 00       		.byte	0
 409 001e 03       		.uleb128 0x3
 410 001f 24       		.uleb128 0x24
 411 0020 00       		.byte	0
 412 0021 0B       		.uleb128 0xb
 413 0022 0B       		.uleb128 0xb
 414 0023 3E       		.uleb128 0x3e
 415 0024 0B       		.uleb128 0xb
 416 0025 03       		.uleb128 0x3
 417 0026 08       		.uleb128 0x8
ARM GAS  C:\Users\User\AppData\Local\Temp\ccAaYIaT.s 			page 11


 418 0027 00       		.byte	0
 419 0028 00       		.byte	0
 420 0029 04       		.uleb128 0x4
 421 002a 16       		.uleb128 0x16
 422 002b 00       		.byte	0
 423 002c 03       		.uleb128 0x3
 424 002d 0E       		.uleb128 0xe
 425 002e 3A       		.uleb128 0x3a
 426 002f 0B       		.uleb128 0xb
 427 0030 3B       		.uleb128 0x3b
 428 0031 05       		.uleb128 0x5
 429 0032 49       		.uleb128 0x49
 430 0033 13       		.uleb128 0x13
 431 0034 00       		.byte	0
 432 0035 00       		.byte	0
 433 0036 05       		.uleb128 0x5
 434 0037 35       		.uleb128 0x35
 435 0038 00       		.byte	0
 436 0039 49       		.uleb128 0x49
 437 003a 13       		.uleb128 0x13
 438 003b 00       		.byte	0
 439 003c 00       		.byte	0
 440 003d 06       		.uleb128 0x6
 441 003e 13       		.uleb128 0x13
 442 003f 01       		.byte	0x1
 443 0040 0B       		.uleb128 0xb
 444 0041 0B       		.uleb128 0xb
 445 0042 3A       		.uleb128 0x3a
 446 0043 0B       		.uleb128 0xb
 447 0044 3B       		.uleb128 0x3b
 448 0045 0B       		.uleb128 0xb
 449 0046 01       		.uleb128 0x1
 450 0047 13       		.uleb128 0x13
 451 0048 00       		.byte	0
 452 0049 00       		.byte	0
 453 004a 07       		.uleb128 0x7
 454 004b 0D       		.uleb128 0xd
 455 004c 00       		.byte	0
 456 004d 03       		.uleb128 0x3
 457 004e 0E       		.uleb128 0xe
 458 004f 3A       		.uleb128 0x3a
 459 0050 0B       		.uleb128 0xb
 460 0051 3B       		.uleb128 0x3b
 461 0052 0B       		.uleb128 0xb
 462 0053 49       		.uleb128 0x49
 463 0054 13       		.uleb128 0x13
 464 0055 38       		.uleb128 0x38
 465 0056 0B       		.uleb128 0xb
 466 0057 00       		.byte	0
 467 0058 00       		.byte	0
 468 0059 08       		.uleb128 0x8
 469 005a 16       		.uleb128 0x16
 470 005b 00       		.byte	0
 471 005c 03       		.uleb128 0x3
 472 005d 0E       		.uleb128 0xe
 473 005e 3A       		.uleb128 0x3a
 474 005f 0B       		.uleb128 0xb
ARM GAS  C:\Users\User\AppData\Local\Temp\ccAaYIaT.s 			page 12


 475 0060 3B       		.uleb128 0x3b
 476 0061 0B       		.uleb128 0xb
 477 0062 49       		.uleb128 0x49
 478 0063 13       		.uleb128 0x13
 479 0064 00       		.byte	0
 480 0065 00       		.byte	0
 481 0066 09       		.uleb128 0x9
 482 0067 2E       		.uleb128 0x2e
 483 0068 00       		.byte	0
 484 0069 3F       		.uleb128 0x3f
 485 006a 19       		.uleb128 0x19
 486 006b 03       		.uleb128 0x3
 487 006c 0E       		.uleb128 0xe
 488 006d 3A       		.uleb128 0x3a
 489 006e 0B       		.uleb128 0xb
 490 006f 3B       		.uleb128 0x3b
 491 0070 0B       		.uleb128 0xb
 492 0071 27       		.uleb128 0x27
 493 0072 19       		.uleb128 0x19
 494 0073 11       		.uleb128 0x11
 495 0074 01       		.uleb128 0x1
 496 0075 12       		.uleb128 0x12
 497 0076 06       		.uleb128 0x6
 498 0077 40       		.uleb128 0x40
 499 0078 18       		.uleb128 0x18
 500 0079 9742     		.uleb128 0x2117
 501 007b 19       		.uleb128 0x19
 502 007c 00       		.byte	0
 503 007d 00       		.byte	0
 504 007e 0A       		.uleb128 0xa
 505 007f 2E       		.uleb128 0x2e
 506 0080 01       		.byte	0x1
 507 0081 3F       		.uleb128 0x3f
 508 0082 19       		.uleb128 0x19
 509 0083 03       		.uleb128 0x3
 510 0084 0E       		.uleb128 0xe
 511 0085 3A       		.uleb128 0x3a
 512 0086 0B       		.uleb128 0xb
 513 0087 3B       		.uleb128 0x3b
 514 0088 0B       		.uleb128 0xb
 515 0089 27       		.uleb128 0x27
 516 008a 19       		.uleb128 0x19
 517 008b 11       		.uleb128 0x11
 518 008c 01       		.uleb128 0x1
 519 008d 12       		.uleb128 0x12
 520 008e 06       		.uleb128 0x6
 521 008f 40       		.uleb128 0x40
 522 0090 18       		.uleb128 0x18
 523 0091 9742     		.uleb128 0x2117
 524 0093 19       		.uleb128 0x19
 525 0094 01       		.uleb128 0x1
 526 0095 13       		.uleb128 0x13
 527 0096 00       		.byte	0
 528 0097 00       		.byte	0
 529 0098 0B       		.uleb128 0xb
 530 0099 898201   		.uleb128 0x4109
 531 009c 00       		.byte	0
ARM GAS  C:\Users\User\AppData\Local\Temp\ccAaYIaT.s 			page 13


 532 009d 11       		.uleb128 0x11
 533 009e 01       		.uleb128 0x1
 534 009f 31       		.uleb128 0x31
 535 00a0 13       		.uleb128 0x13
 536 00a1 00       		.byte	0
 537 00a2 00       		.byte	0
 538 00a3 0C       		.uleb128 0xc
 539 00a4 34       		.uleb128 0x34
 540 00a5 00       		.byte	0
 541 00a6 03       		.uleb128 0x3
 542 00a7 0E       		.uleb128 0xe
 543 00a8 3A       		.uleb128 0x3a
 544 00a9 0B       		.uleb128 0xb
 545 00aa 3B       		.uleb128 0x3b
 546 00ab 0B       		.uleb128 0xb
 547 00ac 49       		.uleb128 0x49
 548 00ad 13       		.uleb128 0x13
 549 00ae 02       		.uleb128 0x2
 550 00af 18       		.uleb128 0x18
 551 00b0 00       		.byte	0
 552 00b1 00       		.byte	0
 553 00b2 0D       		.uleb128 0xd
 554 00b3 2E       		.uleb128 0x2e
 555 00b4 00       		.byte	0
 556 00b5 3F       		.uleb128 0x3f
 557 00b6 19       		.uleb128 0x19
 558 00b7 3C       		.uleb128 0x3c
 559 00b8 19       		.uleb128 0x19
 560 00b9 6E       		.uleb128 0x6e
 561 00ba 0E       		.uleb128 0xe
 562 00bb 03       		.uleb128 0x3
 563 00bc 0E       		.uleb128 0xe
 564 00bd 3A       		.uleb128 0x3a
 565 00be 0B       		.uleb128 0xb
 566 00bf 3B       		.uleb128 0x3b
 567 00c0 0B       		.uleb128 0xb
 568 00c1 00       		.byte	0
 569 00c2 00       		.byte	0
 570 00c3 00       		.byte	0
 571              		.section	.debug_aranges,"",%progbits
 572 0000 34000000 		.4byte	0x34
 573 0004 0200     		.2byte	0x2
 574 0006 00000000 		.4byte	.Ldebug_info0
 575 000a 04       		.byte	0x4
 576 000b 00       		.byte	0
 577 000c 0000     		.2byte	0
 578 000e 0000     		.2byte	0
 579 0010 00000000 		.4byte	.LFB0
 580 0014 14000000 		.4byte	.LFE0-.LFB0
 581 0018 00000000 		.4byte	.LFB1
 582 001c 14000000 		.4byte	.LFE1-.LFB1
 583 0020 00000000 		.4byte	.LFB2
 584 0024 4C000000 		.4byte	.LFE2-.LFB2
 585 0028 00000000 		.4byte	.LFB3
 586 002c 24000000 		.4byte	.LFE3-.LFB3
 587 0030 00000000 		.4byte	0
 588 0034 00000000 		.4byte	0
ARM GAS  C:\Users\User\AppData\Local\Temp\ccAaYIaT.s 			page 14


 589              		.section	.debug_ranges,"",%progbits
 590              	.Ldebug_ranges0:
 591 0000 00000000 		.4byte	.LFB0
 592 0004 14000000 		.4byte	.LFE0
 593 0008 00000000 		.4byte	.LFB1
 594 000c 14000000 		.4byte	.LFE1
 595 0010 00000000 		.4byte	.LFB2
 596 0014 4C000000 		.4byte	.LFE2
 597 0018 00000000 		.4byte	.LFB3
 598 001c 24000000 		.4byte	.LFE3
 599 0020 00000000 		.4byte	0
 600 0024 00000000 		.4byte	0
 601              		.section	.debug_line,"",%progbits
 602              	.Ldebug_line0:
 603 0000 A9000000 		.section	.debug_str,"MS",%progbits,1
 603      02004C00 
 603      00000201 
 603      FB0E0D00 
 603      01010101 
 604              	.LASF6:
 605 0000 6C6F6E67 		.ascii	"long long int\000"
 605      206C6F6E 
 605      6720696E 
 605      7400
 606              	.LASF22:
 607 000e 4144435F 		.ascii	"ADC_Wakeup\000"
 607      57616B65 
 607      757000
 608              	.LASF19:
 609 0019 4144435F 		.ascii	"ADC_SaveConfig\000"
 609      53617665 
 609      436F6E66 
 609      696700
 610              	.LASF3:
 611 0028 73686F72 		.ascii	"short unsigned int\000"
 611      7420756E 
 611      7369676E 
 611      65642069 
 611      6E7400
 612              	.LASF17:
 613 003b 64656363 		.ascii	"deccr\000"
 613      7200
 614              	.LASF28:
 615 0041 433A5C55 		.ascii	"C:\\Users\\User\\Documents\\PSoC Creator\\labDSP\\l"
 615      73657273 
 615      5C557365 
 615      725C446F 
 615      63756D65 
 616 006e 61624453 		.ascii	"abDSP.cydsn\000"
 616      502E6379 
 616      64736E00 
 617              	.LASF9:
 618 007a 666C6F61 		.ascii	"float\000"
 618      7400
 619              	.LASF1:
 620 0080 756E7369 		.ascii	"unsigned char\000"
 620      676E6564 
ARM GAS  C:\Users\User\AppData\Local\Temp\ccAaYIaT.s 			page 15


 620      20636861 
 620      7200
 621              	.LASF26:
 622 008e 474E5520 		.ascii	"GNU C11 5.4.1 20160609 (release) [ARM/embedded-5-br"
 622      43313120 
 622      352E342E 
 622      31203230 
 622      31363036 
 623 00c1 616E6368 		.ascii	"anch revision 237715] -mcpu=cortex-m3 -mthumb -g -O"
 623      20726576 
 623      6973696F 
 623      6E203233 
 623      37373135 
 624 00f4 67202D66 		.ascii	"g -ffunction-sections -ffat-lto-objects\000"
 624      66756E63 
 624      74696F6E 
 624      2D736563 
 624      74696F6E 
 625              	.LASF13:
 626 011c 72656738 		.ascii	"reg8\000"
 626      00
 627              	.LASF5:
 628 0121 6C6F6E67 		.ascii	"long unsigned int\000"
 628      20756E73 
 628      69676E65 
 628      6420696E 
 628      7400
 629              	.LASF12:
 630 0133 75696E74 		.ascii	"uint8\000"
 630      3800
 631              	.LASF21:
 632 0139 4144435F 		.ascii	"ADC_Sleep\000"
 632      536C6565 
 632      7000
 633              	.LASF10:
 634 0143 646F7562 		.ascii	"double\000"
 634      6C6500
 635              	.LASF8:
 636 014a 756E7369 		.ascii	"unsigned int\000"
 636      676E6564 
 636      20696E74 
 636      00
 637              	.LASF24:
 638 0157 4144435F 		.ascii	"ADC_Enable\000"
 638      456E6162 
 638      6C6500
 639              	.LASF7:
 640 0162 6C6F6E67 		.ascii	"long long unsigned int\000"
 640      206C6F6E 
 640      6720756E 
 640      7369676E 
 640      65642069 
 641              	.LASF15:
 642 0179 73697A65 		.ascii	"sizetype\000"
 642      74797065 
 642      00
 643              	.LASF25:
ARM GAS  C:\Users\User\AppData\Local\Temp\ccAaYIaT.s 			page 16


 644 0182 4144435F 		.ascii	"ADC_StartConvert\000"
 644      53746172 
 644      74436F6E 
 644      76657274 
 644      00
 645              	.LASF18:
 646 0193 4144435F 		.ascii	"ADC_BACKUP_STRUCT\000"
 646      4241434B 
 646      55505F53 
 646      54525543 
 646      5400
 647              	.LASF11:
 648 01a5 63686172 		.ascii	"char\000"
 648      00
 649              	.LASF20:
 650 01aa 4144435F 		.ascii	"ADC_RestoreConfig\000"
 650      52657374 
 650      6F726543 
 650      6F6E6669 
 650      6700
 651              	.LASF2:
 652 01bc 73686F72 		.ascii	"short int\000"
 652      7420696E 
 652      7400
 653              	.LASF4:
 654 01c6 6C6F6E67 		.ascii	"long int\000"
 654      20696E74 
 654      00
 655              	.LASF16:
 656 01cf 656E6162 		.ascii	"enableState\000"
 656      6C655374 
 656      61746500 
 657              	.LASF14:
 658 01db 6C6F6E67 		.ascii	"long double\000"
 658      20646F75 
 658      626C6500 
 659              	.LASF0:
 660 01e7 7369676E 		.ascii	"signed char\000"
 660      65642063 
 660      68617200 
 661              	.LASF29:
 662 01f3 4144435F 		.ascii	"ADC_backup\000"
 662      6261636B 
 662      757000
 663              	.LASF27:
 664 01fe 47656E65 		.ascii	"Generated_Source\\PSoC5\\ADC_PM.c\000"
 664      72617465 
 664      645F536F 
 664      75726365 
 664      5C50536F 
 665              	.LASF23:
 666 021e 4144435F 		.ascii	"ADC_Stop\000"
 666      53746F70 
 666      00
 667              		.ident	"GCC: (GNU Tools for ARM Embedded Processors) 5.4.1 20160609 (release) [ARM/embedded-5-bran
