ARM GAS  C:\Users\User\AppData\Local\Temp\ccAEazAM.s 			page 1


   1              		.syntax unified
   2              		.cpu cortex-m3
   3              		.fpu softvfp
   4              		.eabi_attribute 20, 1
   5              		.eabi_attribute 21, 1
   6              		.eabi_attribute 23, 3
   7              		.eabi_attribute 24, 1
   8              		.eabi_attribute 25, 1
   9              		.eabi_attribute 26, 1
  10              		.eabi_attribute 30, 1
  11              		.eabi_attribute 34, 1
  12              		.eabi_attribute 18, 4
  13              		.thumb
  14              		.syntax unified
  15              		.file	"ADC_INT.c"
  16              		.text
  17              	.Ltext0:
  18              		.cfi_sections	.debug_frame
  19              		.section	.text.ADC_ISR1,"ax",%progbits
  20              		.align	2
  21              		.global	ADC_ISR1
  22              		.thumb
  23              		.thumb_func
  24              		.type	ADC_ISR1, %function
  25              	ADC_ISR1:
  26              	.LFB0:
  27              		.file 1 "Generated_Source\\PSoC5\\ADC_INT.c"
   1:Generated_Source\PSoC5/ADC_INT.c **** /*******************************************************************************
   2:Generated_Source\PSoC5/ADC_INT.c **** * File Name: ADC_INT.c
   3:Generated_Source\PSoC5/ADC_INT.c **** * Version 3.30
   4:Generated_Source\PSoC5/ADC_INT.c **** *
   5:Generated_Source\PSoC5/ADC_INT.c **** * Description:
   6:Generated_Source\PSoC5/ADC_INT.c **** *  This file contains the code that operates during the ADC_DelSig interrupt
   7:Generated_Source\PSoC5/ADC_INT.c **** *  service routine.
   8:Generated_Source\PSoC5/ADC_INT.c **** *
   9:Generated_Source\PSoC5/ADC_INT.c **** * Note:
  10:Generated_Source\PSoC5/ADC_INT.c **** *
  11:Generated_Source\PSoC5/ADC_INT.c **** ********************************************************************************
  12:Generated_Source\PSoC5/ADC_INT.c **** * Copyright 2008-2017, Cypress Semiconductor Corporation.  All rights reserved.
  13:Generated_Source\PSoC5/ADC_INT.c **** * You may use this file only in accordance with the license, terms, conditions,
  14:Generated_Source\PSoC5/ADC_INT.c **** * disclaimers, and limitations in the end user license agreement accompanying
  15:Generated_Source\PSoC5/ADC_INT.c **** * the software package with which this file was provided.
  16:Generated_Source\PSoC5/ADC_INT.c **** *******************************************************************************/
  17:Generated_Source\PSoC5/ADC_INT.c **** 
  18:Generated_Source\PSoC5/ADC_INT.c **** #include "ADC.h"
  19:Generated_Source\PSoC5/ADC_INT.c **** #include "cyapicallbacks.h"
  20:Generated_Source\PSoC5/ADC_INT.c **** 
  21:Generated_Source\PSoC5/ADC_INT.c **** 
  22:Generated_Source\PSoC5/ADC_INT.c **** /*******************************************************************************
  23:Generated_Source\PSoC5/ADC_INT.c **** * Custom Declarations and Variables
  24:Generated_Source\PSoC5/ADC_INT.c **** * - add user include files, prototypes and variables between the following
  25:Generated_Source\PSoC5/ADC_INT.c **** *   #START and #END tags
  26:Generated_Source\PSoC5/ADC_INT.c **** *******************************************************************************/
  27:Generated_Source\PSoC5/ADC_INT.c **** /* `#START ADC_SYS_VAR`  */
  28:Generated_Source\PSoC5/ADC_INT.c **** 
  29:Generated_Source\PSoC5/ADC_INT.c **** /* `#END`  */
  30:Generated_Source\PSoC5/ADC_INT.c **** 
ARM GAS  C:\Users\User\AppData\Local\Temp\ccAEazAM.s 			page 2


  31:Generated_Source\PSoC5/ADC_INT.c **** #if(ADC_IRQ_REMOVE == 0u)
  32:Generated_Source\PSoC5/ADC_INT.c **** 
  33:Generated_Source\PSoC5/ADC_INT.c **** 
  34:Generated_Source\PSoC5/ADC_INT.c ****     /*****************************************************************************
  35:Generated_Source\PSoC5/ADC_INT.c ****     * Function Name: ADC_ISR1
  36:Generated_Source\PSoC5/ADC_INT.c ****     ******************************************************************************
  37:Generated_Source\PSoC5/ADC_INT.c ****     *
  38:Generated_Source\PSoC5/ADC_INT.c ****     * Summary:
  39:Generated_Source\PSoC5/ADC_INT.c ****     *  Handle Interrupt Service Routine.
  40:Generated_Source\PSoC5/ADC_INT.c ****     *
  41:Generated_Source\PSoC5/ADC_INT.c ****     * Parameters:
  42:Generated_Source\PSoC5/ADC_INT.c ****     *  None
  43:Generated_Source\PSoC5/ADC_INT.c ****     *
  44:Generated_Source\PSoC5/ADC_INT.c ****     * Return:
  45:Generated_Source\PSoC5/ADC_INT.c ****     *  None
  46:Generated_Source\PSoC5/ADC_INT.c ****     *
  47:Generated_Source\PSoC5/ADC_INT.c ****     * Reentrant:
  48:Generated_Source\PSoC5/ADC_INT.c ****     *  No
  49:Generated_Source\PSoC5/ADC_INT.c ****     *
  50:Generated_Source\PSoC5/ADC_INT.c ****     *****************************************************************************/
  51:Generated_Source\PSoC5/ADC_INT.c ****     CY_ISR( ADC_ISR1)
  52:Generated_Source\PSoC5/ADC_INT.c ****     {
  28              		.loc 1 52 0
  29              		.cfi_startproc
  30              		@ args = 0, pretend = 0, frame = 0
  31              		@ frame_needed = 0, uses_anonymous_args = 0
  32              		@ link register save eliminated.
  33 0000 7047     		bx	lr
  34              		.cfi_endproc
  35              	.LFE0:
  36              		.size	ADC_ISR1, .-ADC_ISR1
  37 0002 00BF     		.section	.text.ADC_ISR2,"ax",%progbits
  38              		.align	2
  39              		.global	ADC_ISR2
  40              		.thumb
  41              		.thumb_func
  42              		.type	ADC_ISR2, %function
  43              	ADC_ISR2:
  44              	.LFB1:
  53:Generated_Source\PSoC5/ADC_INT.c ****         #ifdef ADC_ISR1_ENTRY_CALLBACK
  54:Generated_Source\PSoC5/ADC_INT.c ****             ADC_ISR1_EntryCallback();
  55:Generated_Source\PSoC5/ADC_INT.c ****         #endif /* ADC_ISR1_ENTRY_CALLBACK */
  56:Generated_Source\PSoC5/ADC_INT.c ****         
  57:Generated_Source\PSoC5/ADC_INT.c **** 
  58:Generated_Source\PSoC5/ADC_INT.c ****         /**************************************************************************
  59:Generated_Source\PSoC5/ADC_INT.c ****         *  Custom Code
  60:Generated_Source\PSoC5/ADC_INT.c ****         *  - add user ISR code between the following #START and #END tags
  61:Generated_Source\PSoC5/ADC_INT.c ****         **************************************************************************/
  62:Generated_Source\PSoC5/ADC_INT.c ****         /* `#START MAIN_ADC_ISR1`  */
  63:Generated_Source\PSoC5/ADC_INT.c **** 
  64:Generated_Source\PSoC5/ADC_INT.c ****         /* `#END`  */
  65:Generated_Source\PSoC5/ADC_INT.c ****         
  66:Generated_Source\PSoC5/ADC_INT.c ****         /* Stop the conversion if conversion mode is single sample and resolution
  67:Generated_Source\PSoC5/ADC_INT.c ****         *  is above 16 bits.
  68:Generated_Source\PSoC5/ADC_INT.c ****         */
  69:Generated_Source\PSoC5/ADC_INT.c ****         #if(ADC_CFG1_RESOLUTION > 16 && \
  70:Generated_Source\PSoC5/ADC_INT.c ****             ADC_CFG1_CONV_MODE == ADC_MODE_SINGLE_SAMPLE)
ARM GAS  C:\Users\User\AppData\Local\Temp\ccAEazAM.s 			page 3


  71:Generated_Source\PSoC5/ADC_INT.c ****             ADC_StopConvert();
  72:Generated_Source\PSoC5/ADC_INT.c ****             /* Software flag for checking conversion complete or not. Will be used when
  73:Generated_Source\PSoC5/ADC_INT.c ****             *  resolution is above 16 bits and conversion mode is single sample 
  74:Generated_Source\PSoC5/ADC_INT.c **** 			*/
  75:Generated_Source\PSoC5/ADC_INT.c ****             ADC_convDone = ADC_DEC_CONV_DONE;
  76:Generated_Source\PSoC5/ADC_INT.c ****         #endif /* Single sample conversion mode with resolution above 16 bits */
  77:Generated_Source\PSoC5/ADC_INT.c **** 
  78:Generated_Source\PSoC5/ADC_INT.c ****         #ifdef ADC_ISR1_EXIT_CALLBACK
  79:Generated_Source\PSoC5/ADC_INT.c ****             ADC_ISR1_ExitCallback();
  80:Generated_Source\PSoC5/ADC_INT.c ****         #endif /* ADC_ISR1_EXIT_CALLBACK */
  81:Generated_Source\PSoC5/ADC_INT.c ****     }
  82:Generated_Source\PSoC5/ADC_INT.c **** 
  83:Generated_Source\PSoC5/ADC_INT.c **** 
  84:Generated_Source\PSoC5/ADC_INT.c ****     /*****************************************************************************
  85:Generated_Source\PSoC5/ADC_INT.c ****     * Function Name: ADC_ISR2
  86:Generated_Source\PSoC5/ADC_INT.c ****     ******************************************************************************
  87:Generated_Source\PSoC5/ADC_INT.c ****     *
  88:Generated_Source\PSoC5/ADC_INT.c ****     * Summary:
  89:Generated_Source\PSoC5/ADC_INT.c ****     *  Handle Interrupt Service Routine.
  90:Generated_Source\PSoC5/ADC_INT.c ****     *
  91:Generated_Source\PSoC5/ADC_INT.c ****     * Parameters:
  92:Generated_Source\PSoC5/ADC_INT.c ****     *  None
  93:Generated_Source\PSoC5/ADC_INT.c ****     *
  94:Generated_Source\PSoC5/ADC_INT.c ****     * Return:
  95:Generated_Source\PSoC5/ADC_INT.c ****     *  None
  96:Generated_Source\PSoC5/ADC_INT.c ****     *
  97:Generated_Source\PSoC5/ADC_INT.c ****     * Reentrant:
  98:Generated_Source\PSoC5/ADC_INT.c ****     *  No
  99:Generated_Source\PSoC5/ADC_INT.c ****     *
 100:Generated_Source\PSoC5/ADC_INT.c ****     *****************************************************************************/
 101:Generated_Source\PSoC5/ADC_INT.c ****     CY_ISR( ADC_ISR2)
 102:Generated_Source\PSoC5/ADC_INT.c ****     {
  45              		.loc 1 102 0
  46              		.cfi_startproc
  47              		@ args = 0, pretend = 0, frame = 0
  48              		@ frame_needed = 0, uses_anonymous_args = 0
  49              		@ link register save eliminated.
  50 0000 7047     		bx	lr
  51              		.cfi_endproc
  52              	.LFE1:
  53              		.size	ADC_ISR2, .-ADC_ISR2
  54 0002 00BF     		.section	.text.ADC_ISR3,"ax",%progbits
  55              		.align	2
  56              		.global	ADC_ISR3
  57              		.thumb
  58              		.thumb_func
  59              		.type	ADC_ISR3, %function
  60              	ADC_ISR3:
  61              	.LFB2:
 103:Generated_Source\PSoC5/ADC_INT.c ****         #ifdef ADC_ISR2_ENTRY_CALLBACK
 104:Generated_Source\PSoC5/ADC_INT.c ****             ADC_ISR2_EntryCallback();
 105:Generated_Source\PSoC5/ADC_INT.c ****         #endif /* ADC_ISR2_ENTRY_CALLBACK */
 106:Generated_Source\PSoC5/ADC_INT.c ****         
 107:Generated_Source\PSoC5/ADC_INT.c ****         
 108:Generated_Source\PSoC5/ADC_INT.c ****         /***************************************************************************
 109:Generated_Source\PSoC5/ADC_INT.c ****         *  Custom Code
 110:Generated_Source\PSoC5/ADC_INT.c ****         *  - add user ISR code between the following #START and #END tags
ARM GAS  C:\Users\User\AppData\Local\Temp\ccAEazAM.s 			page 4


 111:Generated_Source\PSoC5/ADC_INT.c ****         **************************************************************************/
 112:Generated_Source\PSoC5/ADC_INT.c ****         /* `#START MAIN_ADC_ISR2`  */
 113:Generated_Source\PSoC5/ADC_INT.c **** 
 114:Generated_Source\PSoC5/ADC_INT.c ****         /* `#END`  */
 115:Generated_Source\PSoC5/ADC_INT.c **** 
 116:Generated_Source\PSoC5/ADC_INT.c ****         /* Stop the conversion conversion mode is single sample and resolution
 117:Generated_Source\PSoC5/ADC_INT.c ****         *  is above 16 bits.
 118:Generated_Source\PSoC5/ADC_INT.c ****         */
 119:Generated_Source\PSoC5/ADC_INT.c ****         #if(ADC_CFG2_RESOLUTION > 16 && \
 120:Generated_Source\PSoC5/ADC_INT.c ****             ADC_CFG2_CONVMODE == ADC_MODE_SINGLE_SAMPLE)
 121:Generated_Source\PSoC5/ADC_INT.c ****             ADC_StopConvert();
 122:Generated_Source\PSoC5/ADC_INT.c ****             /* Software flag for checking conversion complete or not. Will be used when
 123:Generated_Source\PSoC5/ADC_INT.c ****             *   resolution is above 16 bits and conversion mode is single sample 
 124:Generated_Source\PSoC5/ADC_INT.c **** 			*/
 125:Generated_Source\PSoC5/ADC_INT.c ****             ADC_convDone = ADC_DEC_CONV_DONE;
 126:Generated_Source\PSoC5/ADC_INT.c ****         #endif /* Single sample conversion mode with resolution above 16 bits */
 127:Generated_Source\PSoC5/ADC_INT.c **** 
 128:Generated_Source\PSoC5/ADC_INT.c ****         #ifdef ADC_ISR2_EXIT_CALLBACK
 129:Generated_Source\PSoC5/ADC_INT.c ****             ADC_ISR2_ExitCallback();
 130:Generated_Source\PSoC5/ADC_INT.c ****         #endif /* ADC_ISR2_EXIT_CALLBACK */
 131:Generated_Source\PSoC5/ADC_INT.c ****     }
 132:Generated_Source\PSoC5/ADC_INT.c **** 
 133:Generated_Source\PSoC5/ADC_INT.c **** 
 134:Generated_Source\PSoC5/ADC_INT.c ****     /*****************************************************************************
 135:Generated_Source\PSoC5/ADC_INT.c ****     * Function Name: ADC_ISR3
 136:Generated_Source\PSoC5/ADC_INT.c ****     ******************************************************************************
 137:Generated_Source\PSoC5/ADC_INT.c ****     *
 138:Generated_Source\PSoC5/ADC_INT.c ****     * Summary:
 139:Generated_Source\PSoC5/ADC_INT.c ****     *  Handle Interrupt Service Routine.
 140:Generated_Source\PSoC5/ADC_INT.c ****     *
 141:Generated_Source\PSoC5/ADC_INT.c ****     * Parameters:
 142:Generated_Source\PSoC5/ADC_INT.c ****     *  None
 143:Generated_Source\PSoC5/ADC_INT.c ****     *
 144:Generated_Source\PSoC5/ADC_INT.c ****     * Return:
 145:Generated_Source\PSoC5/ADC_INT.c ****     *  None
 146:Generated_Source\PSoC5/ADC_INT.c ****     *
 147:Generated_Source\PSoC5/ADC_INT.c ****     * Reentrant:
 148:Generated_Source\PSoC5/ADC_INT.c ****     *  No
 149:Generated_Source\PSoC5/ADC_INT.c ****     *
 150:Generated_Source\PSoC5/ADC_INT.c ****     *****************************************************************************/
 151:Generated_Source\PSoC5/ADC_INT.c ****     CY_ISR( ADC_ISR3)
 152:Generated_Source\PSoC5/ADC_INT.c ****     {
  62              		.loc 1 152 0
  63              		.cfi_startproc
  64              		@ args = 0, pretend = 0, frame = 0
  65              		@ frame_needed = 0, uses_anonymous_args = 0
  66              		@ link register save eliminated.
  67 0000 7047     		bx	lr
  68              		.cfi_endproc
  69              	.LFE2:
  70              		.size	ADC_ISR3, .-ADC_ISR3
  71 0002 00BF     		.section	.text.ADC_ISR4,"ax",%progbits
  72              		.align	2
  73              		.global	ADC_ISR4
  74              		.thumb
  75              		.thumb_func
  76              		.type	ADC_ISR4, %function
ARM GAS  C:\Users\User\AppData\Local\Temp\ccAEazAM.s 			page 5


  77              	ADC_ISR4:
  78              	.LFB3:
 153:Generated_Source\PSoC5/ADC_INT.c ****         #ifdef ADC_ISR3_ENTRY_CALLBACK
 154:Generated_Source\PSoC5/ADC_INT.c ****             ADC_ISR3_EntryCallback();
 155:Generated_Source\PSoC5/ADC_INT.c ****         #endif /* ADC_ISR3_ENTRY_CALLBACK */        
 156:Generated_Source\PSoC5/ADC_INT.c **** 
 157:Generated_Source\PSoC5/ADC_INT.c ****         
 158:Generated_Source\PSoC5/ADC_INT.c ****         /***************************************************************************
 159:Generated_Source\PSoC5/ADC_INT.c ****         *  Custom Code
 160:Generated_Source\PSoC5/ADC_INT.c ****         *  - add user ISR code between the following #START and #END tags
 161:Generated_Source\PSoC5/ADC_INT.c ****         **************************************************************************/
 162:Generated_Source\PSoC5/ADC_INT.c ****         /* `#START MAIN_ADC_ISR3`  */
 163:Generated_Source\PSoC5/ADC_INT.c **** 
 164:Generated_Source\PSoC5/ADC_INT.c ****         /* `#END`  */
 165:Generated_Source\PSoC5/ADC_INT.c ****         
 166:Generated_Source\PSoC5/ADC_INT.c ****         /* Stop the conversion if conversion mode is set to single sample and
 167:Generated_Source\PSoC5/ADC_INT.c ****         *  resolution is above 16 bits.
 168:Generated_Source\PSoC5/ADC_INT.c ****         */
 169:Generated_Source\PSoC5/ADC_INT.c ****         #if(ADC_CFG3_RESOLUTION > 16 && \
 170:Generated_Source\PSoC5/ADC_INT.c ****             ADC_CFG3_CONVMODE == ADC_MODE_SINGLE_SAMPLE)
 171:Generated_Source\PSoC5/ADC_INT.c ****             ADC_StopConvert();
 172:Generated_Source\PSoC5/ADC_INT.c ****             /* Software flag for checking conversion complete or not. Will be used when
 173:Generated_Source\PSoC5/ADC_INT.c ****             *  resolution is above 16 bits and conversion mode is single sample 
 174:Generated_Source\PSoC5/ADC_INT.c **** 			*/
 175:Generated_Source\PSoC5/ADC_INT.c ****             ADC_convDone = ADC_DEC_CONV_DONE;
 176:Generated_Source\PSoC5/ADC_INT.c ****         #endif /* Single sample conversion mode with resolution above 16 bits */
 177:Generated_Source\PSoC5/ADC_INT.c **** 
 178:Generated_Source\PSoC5/ADC_INT.c ****         #ifdef ADC_ISR3_EXIT_CALLBACK
 179:Generated_Source\PSoC5/ADC_INT.c ****             ADC_ISR3_ExitCallback();
 180:Generated_Source\PSoC5/ADC_INT.c ****         #endif /* ADC_ISR3_EXIT_CALLBACK */        
 181:Generated_Source\PSoC5/ADC_INT.c ****     }
 182:Generated_Source\PSoC5/ADC_INT.c **** 
 183:Generated_Source\PSoC5/ADC_INT.c **** 
 184:Generated_Source\PSoC5/ADC_INT.c ****     /*****************************************************************************
 185:Generated_Source\PSoC5/ADC_INT.c ****     * Function Name: ADC_ISR4
 186:Generated_Source\PSoC5/ADC_INT.c ****     ******************************************************************************
 187:Generated_Source\PSoC5/ADC_INT.c ****     *
 188:Generated_Source\PSoC5/ADC_INT.c ****     * Summary:
 189:Generated_Source\PSoC5/ADC_INT.c ****     *  Handle Interrupt Service Routine.
 190:Generated_Source\PSoC5/ADC_INT.c ****     *
 191:Generated_Source\PSoC5/ADC_INT.c ****     * Parameters:
 192:Generated_Source\PSoC5/ADC_INT.c ****     *  None
 193:Generated_Source\PSoC5/ADC_INT.c ****     *
 194:Generated_Source\PSoC5/ADC_INT.c ****     * Return:
 195:Generated_Source\PSoC5/ADC_INT.c ****     *  None
 196:Generated_Source\PSoC5/ADC_INT.c ****     *
 197:Generated_Source\PSoC5/ADC_INT.c ****     * Reentrant:
 198:Generated_Source\PSoC5/ADC_INT.c ****     *  No
 199:Generated_Source\PSoC5/ADC_INT.c ****     *
 200:Generated_Source\PSoC5/ADC_INT.c ****     *****************************************************************************/
 201:Generated_Source\PSoC5/ADC_INT.c ****     CY_ISR( ADC_ISR4)
 202:Generated_Source\PSoC5/ADC_INT.c ****     {
  79              		.loc 1 202 0
  80              		.cfi_startproc
  81              		@ args = 0, pretend = 0, frame = 0
  82              		@ frame_needed = 0, uses_anonymous_args = 0
  83              		@ link register save eliminated.
ARM GAS  C:\Users\User\AppData\Local\Temp\ccAEazAM.s 			page 6


  84 0000 7047     		bx	lr
  85              		.cfi_endproc
  86              	.LFE3:
  87              		.size	ADC_ISR4, .-ADC_ISR4
  88 0002 00BF     		.text
  89              	.Letext0:
  90              		.section	.debug_info,"",%progbits
  91              	.Ldebug_info0:
  92 0000 CF000000 		.4byte	0xcf
  93 0004 0400     		.2byte	0x4
  94 0006 00000000 		.4byte	.Ldebug_abbrev0
  95 000a 04       		.byte	0x4
  96 000b 01       		.uleb128 0x1
  97 000c 1B000000 		.4byte	.LASF18
  98 0010 0C       		.byte	0xc
  99 0011 54010000 		.4byte	.LASF19
 100 0015 75010000 		.4byte	.LASF20
 101 0019 00000000 		.4byte	.Ldebug_ranges0+0
 102 001d 00000000 		.4byte	0
 103 0021 00000000 		.4byte	.Ldebug_line0
 104 0025 02       		.uleb128 0x2
 105 0026 01       		.byte	0x1
 106 0027 06       		.byte	0x6
 107 0028 32010000 		.4byte	.LASF0
 108 002c 02       		.uleb128 0x2
 109 002d 01       		.byte	0x1
 110 002e 08       		.byte	0x8
 111 002f D8000000 		.4byte	.LASF1
 112 0033 02       		.uleb128 0x2
 113 0034 02       		.byte	0x2
 114 0035 05       		.byte	0x5
 115 0036 4A010000 		.4byte	.LASF2
 116 003a 02       		.uleb128 0x2
 117 003b 02       		.byte	0x2
 118 003c 07       		.byte	0x7
 119 003d 1F010000 		.4byte	.LASF3
 120 0041 02       		.uleb128 0x2
 121 0042 04       		.byte	0x4
 122 0043 05       		.byte	0x5
 123 0044 FD000000 		.4byte	.LASF4
 124 0048 02       		.uleb128 0x2
 125 0049 04       		.byte	0x4
 126 004a 07       		.byte	0x7
 127 004b A9000000 		.4byte	.LASF5
 128 004f 02       		.uleb128 0x2
 129 0050 08       		.byte	0x8
 130 0051 05       		.byte	0x5
 131 0052 00000000 		.4byte	.LASF6
 132 0056 02       		.uleb128 0x2
 133 0057 08       		.byte	0x8
 134 0058 07       		.byte	0x7
 135 0059 BB000000 		.4byte	.LASF7
 136 005d 03       		.uleb128 0x3
 137 005e 04       		.byte	0x4
 138 005f 05       		.byte	0x5
 139 0060 696E7400 		.ascii	"int\000"
 140 0064 02       		.uleb128 0x2
ARM GAS  C:\Users\User\AppData\Local\Temp\ccAEazAM.s 			page 7


 141 0065 04       		.byte	0x4
 142 0066 07       		.byte	0x7
 143 0067 0E000000 		.4byte	.LASF8
 144 006b 02       		.uleb128 0x2
 145 006c 04       		.byte	0x4
 146 006d 04       		.byte	0x4
 147 006e D2000000 		.4byte	.LASF9
 148 0072 02       		.uleb128 0x2
 149 0073 08       		.byte	0x8
 150 0074 04       		.byte	0x4
 151 0075 06010000 		.4byte	.LASF10
 152 0079 02       		.uleb128 0x2
 153 007a 01       		.byte	0x1
 154 007b 08       		.byte	0x8
 155 007c EF000000 		.4byte	.LASF11
 156 0080 02       		.uleb128 0x2
 157 0081 08       		.byte	0x8
 158 0082 04       		.byte	0x4
 159 0083 3E010000 		.4byte	.LASF12
 160 0087 02       		.uleb128 0x2
 161 0088 04       		.byte	0x4
 162 0089 07       		.byte	0x7
 163 008a AE010000 		.4byte	.LASF13
 164 008e 04       		.uleb128 0x4
 165 008f 0D010000 		.4byte	.LASF14
 166 0093 01       		.byte	0x1
 167 0094 33       		.byte	0x33
 168 0095 00000000 		.4byte	.LFB0
 169 0099 02000000 		.4byte	.LFE0-.LFB0
 170 009d 01       		.uleb128 0x1
 171 009e 9C       		.byte	0x9c
 172 009f 04       		.uleb128 0x4
 173 00a0 16010000 		.4byte	.LASF15
 174 00a4 01       		.byte	0x1
 175 00a5 65       		.byte	0x65
 176 00a6 00000000 		.4byte	.LFB1
 177 00aa 02000000 		.4byte	.LFE1-.LFB1
 178 00ae 01       		.uleb128 0x1
 179 00af 9C       		.byte	0x9c
 180 00b0 04       		.uleb128 0x4
 181 00b1 E6000000 		.4byte	.LASF16
 182 00b5 01       		.byte	0x1
 183 00b6 97       		.byte	0x97
 184 00b7 00000000 		.4byte	.LFB2
 185 00bb 02000000 		.4byte	.LFE2-.LFB2
 186 00bf 01       		.uleb128 0x1
 187 00c0 9C       		.byte	0x9c
 188 00c1 04       		.uleb128 0x4
 189 00c2 F4000000 		.4byte	.LASF17
 190 00c6 01       		.byte	0x1
 191 00c7 C9       		.byte	0xc9
 192 00c8 00000000 		.4byte	.LFB3
 193 00cc 02000000 		.4byte	.LFE3-.LFB3
 194 00d0 01       		.uleb128 0x1
 195 00d1 9C       		.byte	0x9c
 196 00d2 00       		.byte	0
 197              		.section	.debug_abbrev,"",%progbits
ARM GAS  C:\Users\User\AppData\Local\Temp\ccAEazAM.s 			page 8


 198              	.Ldebug_abbrev0:
 199 0000 01       		.uleb128 0x1
 200 0001 11       		.uleb128 0x11
 201 0002 01       		.byte	0x1
 202 0003 25       		.uleb128 0x25
 203 0004 0E       		.uleb128 0xe
 204 0005 13       		.uleb128 0x13
 205 0006 0B       		.uleb128 0xb
 206 0007 03       		.uleb128 0x3
 207 0008 0E       		.uleb128 0xe
 208 0009 1B       		.uleb128 0x1b
 209 000a 0E       		.uleb128 0xe
 210 000b 55       		.uleb128 0x55
 211 000c 17       		.uleb128 0x17
 212 000d 11       		.uleb128 0x11
 213 000e 01       		.uleb128 0x1
 214 000f 10       		.uleb128 0x10
 215 0010 17       		.uleb128 0x17
 216 0011 00       		.byte	0
 217 0012 00       		.byte	0
 218 0013 02       		.uleb128 0x2
 219 0014 24       		.uleb128 0x24
 220 0015 00       		.byte	0
 221 0016 0B       		.uleb128 0xb
 222 0017 0B       		.uleb128 0xb
 223 0018 3E       		.uleb128 0x3e
 224 0019 0B       		.uleb128 0xb
 225 001a 03       		.uleb128 0x3
 226 001b 0E       		.uleb128 0xe
 227 001c 00       		.byte	0
 228 001d 00       		.byte	0
 229 001e 03       		.uleb128 0x3
 230 001f 24       		.uleb128 0x24
 231 0020 00       		.byte	0
 232 0021 0B       		.uleb128 0xb
 233 0022 0B       		.uleb128 0xb
 234 0023 3E       		.uleb128 0x3e
 235 0024 0B       		.uleb128 0xb
 236 0025 03       		.uleb128 0x3
 237 0026 08       		.uleb128 0x8
 238 0027 00       		.byte	0
 239 0028 00       		.byte	0
 240 0029 04       		.uleb128 0x4
 241 002a 2E       		.uleb128 0x2e
 242 002b 00       		.byte	0
 243 002c 3F       		.uleb128 0x3f
 244 002d 19       		.uleb128 0x19
 245 002e 03       		.uleb128 0x3
 246 002f 0E       		.uleb128 0xe
 247 0030 3A       		.uleb128 0x3a
 248 0031 0B       		.uleb128 0xb
 249 0032 3B       		.uleb128 0x3b
 250 0033 0B       		.uleb128 0xb
 251 0034 27       		.uleb128 0x27
 252 0035 19       		.uleb128 0x19
 253 0036 11       		.uleb128 0x11
 254 0037 01       		.uleb128 0x1
ARM GAS  C:\Users\User\AppData\Local\Temp\ccAEazAM.s 			page 9


 255 0038 12       		.uleb128 0x12
 256 0039 06       		.uleb128 0x6
 257 003a 40       		.uleb128 0x40
 258 003b 18       		.uleb128 0x18
 259 003c 9742     		.uleb128 0x2117
 260 003e 19       		.uleb128 0x19
 261 003f 00       		.byte	0
 262 0040 00       		.byte	0
 263 0041 00       		.byte	0
 264              		.section	.debug_aranges,"",%progbits
 265 0000 34000000 		.4byte	0x34
 266 0004 0200     		.2byte	0x2
 267 0006 00000000 		.4byte	.Ldebug_info0
 268 000a 04       		.byte	0x4
 269 000b 00       		.byte	0
 270 000c 0000     		.2byte	0
 271 000e 0000     		.2byte	0
 272 0010 00000000 		.4byte	.LFB0
 273 0014 02000000 		.4byte	.LFE0-.LFB0
 274 0018 00000000 		.4byte	.LFB1
 275 001c 02000000 		.4byte	.LFE1-.LFB1
 276 0020 00000000 		.4byte	.LFB2
 277 0024 02000000 		.4byte	.LFE2-.LFB2
 278 0028 00000000 		.4byte	.LFB3
 279 002c 02000000 		.4byte	.LFE3-.LFB3
 280 0030 00000000 		.4byte	0
 281 0034 00000000 		.4byte	0
 282              		.section	.debug_ranges,"",%progbits
 283              	.Ldebug_ranges0:
 284 0000 00000000 		.4byte	.LFB0
 285 0004 02000000 		.4byte	.LFE0
 286 0008 00000000 		.4byte	.LFB1
 287 000c 02000000 		.4byte	.LFE1
 288 0010 00000000 		.4byte	.LFB2
 289 0014 02000000 		.4byte	.LFE2
 290 0018 00000000 		.4byte	.LFB3
 291 001c 02000000 		.4byte	.LFE3
 292 0020 00000000 		.4byte	0
 293 0024 00000000 		.4byte	0
 294              		.section	.debug_line,"",%progbits
 295              	.Ldebug_line0:
 296 0000 7C000000 		.section	.debug_str,"MS",%progbits,1
 296      02003700 
 296      00000201 
 296      FB0E0D00 
 296      01010101 
 297              	.LASF6:
 298 0000 6C6F6E67 		.ascii	"long long int\000"
 298      206C6F6E 
 298      6720696E 
 298      7400
 299              	.LASF8:
 300 000e 756E7369 		.ascii	"unsigned int\000"
 300      676E6564 
 300      20696E74 
 300      00
 301              	.LASF18:
ARM GAS  C:\Users\User\AppData\Local\Temp\ccAEazAM.s 			page 10


 302 001b 474E5520 		.ascii	"GNU C11 5.4.1 20160609 (release) [ARM/embedded-5-br"
 302      43313120 
 302      352E342E 
 302      31203230 
 302      31363036 
 303 004e 616E6368 		.ascii	"anch revision 237715] -mcpu=cortex-m3 -mthumb -g -O"
 303      20726576 
 303      6973696F 
 303      6E203233 
 303      37373135 
 304 0081 67202D66 		.ascii	"g -ffunction-sections -ffat-lto-objects\000"
 304      66756E63 
 304      74696F6E 
 304      2D736563 
 304      74696F6E 
 305              	.LASF5:
 306 00a9 6C6F6E67 		.ascii	"long unsigned int\000"
 306      20756E73 
 306      69676E65 
 306      6420696E 
 306      7400
 307              	.LASF7:
 308 00bb 6C6F6E67 		.ascii	"long long unsigned int\000"
 308      206C6F6E 
 308      6720756E 
 308      7369676E 
 308      65642069 
 309              	.LASF9:
 310 00d2 666C6F61 		.ascii	"float\000"
 310      7400
 311              	.LASF1:
 312 00d8 756E7369 		.ascii	"unsigned char\000"
 312      676E6564 
 312      20636861 
 312      7200
 313              	.LASF16:
 314 00e6 4144435F 		.ascii	"ADC_ISR3\000"
 314      49535233 
 314      00
 315              	.LASF11:
 316 00ef 63686172 		.ascii	"char\000"
 316      00
 317              	.LASF17:
 318 00f4 4144435F 		.ascii	"ADC_ISR4\000"
 318      49535234 
 318      00
 319              	.LASF4:
 320 00fd 6C6F6E67 		.ascii	"long int\000"
 320      20696E74 
 320      00
 321              	.LASF10:
 322 0106 646F7562 		.ascii	"double\000"
 322      6C6500
 323              	.LASF14:
 324 010d 4144435F 		.ascii	"ADC_ISR1\000"
 324      49535231 
 324      00
ARM GAS  C:\Users\User\AppData\Local\Temp\ccAEazAM.s 			page 11


 325              	.LASF15:
 326 0116 4144435F 		.ascii	"ADC_ISR2\000"
 326      49535232 
 326      00
 327              	.LASF3:
 328 011f 73686F72 		.ascii	"short unsigned int\000"
 328      7420756E 
 328      7369676E 
 328      65642069 
 328      6E7400
 329              	.LASF0:
 330 0132 7369676E 		.ascii	"signed char\000"
 330      65642063 
 330      68617200 
 331              	.LASF12:
 332 013e 6C6F6E67 		.ascii	"long double\000"
 332      20646F75 
 332      626C6500 
 333              	.LASF2:
 334 014a 73686F72 		.ascii	"short int\000"
 334      7420696E 
 334      7400
 335              	.LASF19:
 336 0154 47656E65 		.ascii	"Generated_Source\\PSoC5\\ADC_INT.c\000"
 336      72617465 
 336      645F536F 
 336      75726365 
 336      5C50536F 
 337              	.LASF20:
 338 0175 433A5C55 		.ascii	"C:\\Users\\User\\Documents\\PSoC Creator\\labDSP\\l"
 338      73657273 
 338      5C557365 
 338      725C446F 
 338      63756D65 
 339 01a2 61624453 		.ascii	"abDSP.cydsn\000"
 339      502E6379 
 339      64736E00 
 340              	.LASF13:
 341 01ae 73697A65 		.ascii	"sizetype\000"
 341      74797065 
 341      00
 342              		.ident	"GCC: (GNU Tools for ARM Embedded Processors) 5.4.1 20160609 (release) [ARM/embedded-5-bran
